module gitlab.com/mvochoa/awssecretmanager/cmd

go 1.17

require gitlab.com/mvochoa/awssecretmanager v0.0.0-20211004233631-86bc0385a663

replace gitlab.com/mvochoa/awssecretmanager v0.0.0-20211004233631-86bc0385a663 => ../

require (
	github.com/PuerkitoBio/purell v1.1.1 // indirect
	github.com/PuerkitoBio/urlesc v0.0.0-20170810143723-de5bf2ad4578 // indirect
	github.com/aws/aws-sdk-go v1.41.8 // indirect
	github.com/davecgh/go-spew v1.1.1 // indirect
	github.com/go-errors/errors v1.4.1 // indirect
	github.com/go-openapi/jsonpointer v0.19.5 // indirect
	github.com/go-openapi/jsonreference v0.19.6 // indirect
	github.com/go-openapi/swag v0.19.15 // indirect
	github.com/jmespath/go-jmespath v0.4.0 // indirect
	github.com/josharian/intern v1.0.0 // indirect
	github.com/mailru/easyjson v0.7.7 // indirect
	github.com/monochromegane/go-gitignore v0.0.0-20200626010858-205db1a8cc00 // indirect
	github.com/pkg/errors v0.9.1 // indirect
	github.com/pmezard/go-difflib v1.0.0 // indirect
	github.com/stretchr/testify v1.7.0 // indirect
	github.com/xlab/treeprint v1.1.0 // indirect
	golang.org/x/net v0.0.0-20211020060615-d418f374d309 // indirect
	golang.org/x/text v0.3.7 // indirect
	gopkg.in/yaml.v2 v2.4.0 // indirect
	gopkg.in/yaml.v3 v3.0.0-20210107192922-496545a6307b // indirect
	k8s.io/kube-openapi v0.0.0-20211021173138-95a400baf1a0 // indirect
	sigs.k8s.io/kustomize/api v0.10.0 // indirect
	sigs.k8s.io/kustomize/kyaml v0.12.0 // indirect
	sigs.k8s.io/yaml v1.3.0 // indirect
)
